%TF.GenerationSoftware,KiCad,Pcbnew,5.1.6-c6e7f7d~86~ubuntu18.04.1*%
%TF.CreationDate,2020-07-06T12:57:37+01:00*%
%TF.ProjectId,sensor,73656e73-6f72-42e6-9b69-6361645f7063,rev?*%
%TF.SameCoordinates,Original*%
%TF.FileFunction,Soldermask,Top*%
%TF.FilePolarity,Negative*%
%FSLAX46Y46*%
G04 Gerber Fmt 4.6, Leading zero omitted, Abs format (unit mm)*
G04 Created by KiCad (PCBNEW 5.1.6-c6e7f7d~86~ubuntu18.04.1) date 2020-07-06 12:57:37*
%MOMM*%
%LPD*%
G01*
G04 APERTURE LIST*
%ADD10C,4.400000*%
%ADD11C,1.900000*%
%ADD12R,1.900000X1.900000*%
%ADD13O,1.700000X1.700000*%
%ADD14C,1.700000*%
%ADD15R,2.500000X1.700000*%
%ADD16O,2.500000X1.700000*%
%ADD17R,3.100000X3.100000*%
%ADD18C,3.100000*%
%ADD19C,3.550000*%
%ADD20R,1.500000X1.500000*%
%ADD21C,1.500000*%
G04 APERTURE END LIST*
D10*
%TO.C,M4*%
X110000000Y-69000000D03*
%TD*%
%TO.C,M4*%
X187000000Y-69000000D03*
%TD*%
%TO.C,M4*%
X187000000Y-124000000D03*
%TD*%
%TO.C,M4*%
X110000000Y-124000000D03*
%TD*%
D11*
%TO.C,D4*%
X120904000Y-69850000D03*
D12*
X118364000Y-69850000D03*
%TD*%
%TO.C,D5*%
X117856000Y-89916000D03*
D11*
X120396000Y-89916000D03*
%TD*%
D12*
%TO.C,D6*%
X117602000Y-101854000D03*
D11*
X120142000Y-101854000D03*
%TD*%
D12*
%TO.C,D7*%
X117094000Y-122174000D03*
D11*
X119634000Y-122174000D03*
%TD*%
D13*
%TO.C,R1*%
X125222000Y-107950000D03*
D14*
X135382000Y-107950000D03*
%TD*%
%TO.C,R2*%
X164338000Y-107950000D03*
D13*
X154178000Y-107950000D03*
%TD*%
D14*
%TO.C,R3*%
X149606000Y-107950000D03*
D13*
X139446000Y-107950000D03*
%TD*%
D14*
%TO.C,R4*%
X125730000Y-114554000D03*
D13*
X125730000Y-124714000D03*
%TD*%
%TO.C,R5*%
X178562000Y-107950000D03*
D14*
X168402000Y-107950000D03*
%TD*%
D13*
%TO.C,R6*%
X189992000Y-78994000D03*
D14*
X189992000Y-89154000D03*
%TD*%
D15*
%TO.C,U1*%
X182880000Y-97028000D03*
D16*
X190500000Y-112268000D03*
X182880000Y-99568000D03*
X190500000Y-109728000D03*
X182880000Y-102108000D03*
X190500000Y-107188000D03*
X182880000Y-104648000D03*
X190500000Y-104648000D03*
X182880000Y-107188000D03*
X190500000Y-102108000D03*
X182880000Y-109728000D03*
X190500000Y-99568000D03*
X182880000Y-112268000D03*
X190500000Y-97028000D03*
%TD*%
D17*
%TO.C,BT1*%
X129032000Y-72136000D03*
D18*
X129032000Y-84836000D03*
D19*
X152752000Y-72136000D03*
X152752000Y-95636000D03*
%TD*%
D18*
%TO.C,J1*%
X165274000Y-119380000D03*
D17*
X160274000Y-119380000D03*
%TD*%
%TO.C,J2*%
X145796000Y-119380000D03*
D18*
X150796000Y-119380000D03*
%TD*%
D20*
%TO.C,SW1*%
X172720000Y-123698000D03*
D21*
X172720000Y-121198000D03*
X172720000Y-118698000D03*
X176020000Y-123698000D03*
X176020000Y-121198000D03*
X176020000Y-118698000D03*
%TD*%
%TO.C,SW2*%
X184910000Y-81360000D03*
X184910000Y-83860000D03*
X184910000Y-86360000D03*
X181610000Y-81360000D03*
X181610000Y-83860000D03*
D20*
X181610000Y-86360000D03*
%TD*%
D17*
%TO.C,SW3*%
X132080000Y-119380000D03*
D18*
X137080000Y-119380000D03*
%TD*%
M02*
