M48
; DRILL file {KiCad 5.1.6-c6e7f7d~86~ubuntu18.04.1} date Mon Jul  6 12:57:34 2020
; FORMAT={-:-/ absolute / inch / decimal}
; #@! TF.CreationDate,2020-07-06T12:57:34+01:00
; #@! TF.GenerationSoftware,Kicad,Pcbnew,5.1.6-c6e7f7d~86~ubuntu18.04.1
; #@! TF.FileFunction,NonPlated,1,2,NPTH
FMAT,2
INCH
T1C0.1358
T2C0.1693
%
G90
G05
T1
X6.0139Y-2.84
X6.0139Y-3.7652
T2
X4.3307Y-4.8819
X7.3622Y-4.8819
X7.3622Y-2.7165
X4.3307Y-2.7165
T0
M30
