EESchema Schematic File Version 4
EELAYER 30 0
EELAYER END
$Descr A4 11693 8268
encoding utf-8
Sheet 1 1
Title ""
Date ""
Rev ""
Comp ""
Comment1 ""
Comment2 ""
Comment3 ""
Comment4 ""
$EndDescr
$Comp
L MCU_Microchip_PIC16:PIC16F684-IP U1
U 1 1 5EF66190
P 5950 3500
F 0 "U1" H 5950 4281 50  0000 C CNN
F 1 "PIC16F684-IP" H 5950 4190 50  0000 C CNN
F 2 "Package_DIP:DIP-14_W7.62mm_Socket_LongPads" H 5950 3500 50  0001 C CNN
F 3 "http://ww1.microchip.com/downloads/en/DeviceDoc/41202F-print.pdf" H 5950 3500 50  0001 C CNN
	1    5950 3500
	1    0    0    -1  
$EndComp
$Comp
L Device:R R3
U 1 1 5EF67ABF
P 4050 4350
F 0 "R3" H 4120 4396 50  0000 L CNN
F 1 "1k" H 4120 4305 50  0000 L CNN
F 2 "Resistor_THT:R_Axial_DIN0207_L6.3mm_D2.5mm_P10.16mm_Horizontal" V 3980 4350 50  0001 C CNN
F 3 "~" H 4050 4350 50  0001 C CNN
	1    4050 4350
	1    0    0    -1  
$EndComp
$Comp
L Device:LED D4
U 1 1 5EF68D67
P 4050 5050
F 0 "D4" V 4089 4932 50  0000 R CNN
F 1 "READY" V 3998 4932 50  0000 R CNN
F 2 "LED_THT:LED_D5.0mm_Clear" H 4050 5050 50  0001 C CNN
F 3 "~" H 4050 5050 50  0001 C CNN
	1    4050 5050
	0    -1   -1   0   
$EndComp
Wire Wire Line
	4050 4500 4050 4900
$Comp
L Device:R R2
U 1 1 5EF72222
P 3300 4350
F 0 "R2" H 3370 4396 50  0000 L CNN
F 1 "1k" H 3370 4305 50  0000 L CNN
F 2 "Resistor_THT:R_Axial_DIN0207_L6.3mm_D2.5mm_P10.16mm_Horizontal" V 3230 4350 50  0001 C CNN
F 3 "~" H 3300 4350 50  0001 C CNN
	1    3300 4350
	1    0    0    -1  
$EndComp
$Comp
L Device:LED D6
U 1 1 5EF72228
P 3300 5050
F 0 "D6" V 3339 4932 50  0000 R CNN
F 1 "OVER_TEMP" V 3248 4932 50  0000 R CNN
F 2 "LED_THT:LED_D5.0mm_Clear" H 3300 5050 50  0001 C CNN
F 3 "~" H 3300 5050 50  0001 C CNN
	1    3300 5050
	0    -1   -1   0   
$EndComp
Wire Wire Line
	3300 4500 3300 4900
$Comp
L Device:R R4
U 1 1 5EF72F2D
P 8100 4350
F 0 "R4" H 8170 4396 50  0000 L CNN
F 1 "1k" H 8170 4305 50  0000 L CNN
F 2 "Resistor_THT:R_Axial_DIN0207_L6.3mm_D2.5mm_P10.16mm_Horizontal" V 8030 4350 50  0001 C CNN
F 3 "~" H 8100 4350 50  0001 C CNN
	1    8100 4350
	1    0    0    -1  
$EndComp
$Comp
L Device:LED D7
U 1 1 5EF72F33
P 8100 5050
F 0 "D7" V 8139 4932 50  0000 R CNN
F 1 "FAULT" V 8048 4932 50  0000 R CNN
F 2 "LED_THT:LED_D5.0mm_Clear" H 8100 5050 50  0001 C CNN
F 3 "~" H 8100 5050 50  0001 C CNN
	1    8100 5050
	0    -1   -1   0   
$EndComp
Wire Wire Line
	8100 4500 8100 4900
Wire Wire Line
	4050 4200 4050 3700
Wire Wire Line
	3300 4200 3300 3400
Wire Wire Line
	8100 4200 8100 3700
Wire Wire Line
	8100 3700 7550 3700
$Comp
L Device:R R1
U 1 1 5EF7698B
P 2550 4350
F 0 "R1" H 2620 4396 50  0000 L CNN
F 1 "1k" H 2620 4305 50  0000 L CNN
F 2 "Resistor_THT:R_Axial_DIN0207_L6.3mm_D2.5mm_P10.16mm_Horizontal" V 2480 4350 50  0001 C CNN
F 3 "~" H 2550 4350 50  0001 C CNN
	1    2550 4350
	1    0    0    -1  
$EndComp
$Comp
L Device:LED D5
U 1 1 5EF76991
P 2550 5050
F 0 "D5" V 2589 4932 50  0000 R CNN
F 1 "STERIL" V 2498 4932 50  0000 R CNN
F 2 "LED_THT:LED_D5.0mm_Clear" H 2550 5050 50  0001 C CNN
F 3 "~" H 2550 5050 50  0001 C CNN
	1    2550 5050
	0    -1   -1   0   
$EndComp
Wire Wire Line
	2550 4500 2550 4900
Wire Wire Line
	2550 4200 2550 3300
Wire Wire Line
	2550 3300 4350 3300
Wire Wire Line
	8100 5200 8100 5600
$Comp
L Switch:SW_Push SW3
U 1 1 5EF863C2
P 9150 4350
F 0 "SW3" V 9104 4498 50  0000 L CNN
F 1 "START" V 9195 4498 50  0000 L CNN
F 2 "TerminalBlock_Altech:Altech_AK300_1x02_P5.00mm_45-Degree" H 9150 4550 50  0001 C CNN
F 3 "~" H 9150 4550 50  0001 C CNN
	1    9150 4350
	0    1    1    0   
$EndComp
$Comp
L Device:R R6
U 1 1 5EF871E6
P 9150 3250
F 0 "R6" H 9220 3296 50  0000 L CNN
F 1 "10k" H 9220 3205 50  0000 L CNN
F 2 "Resistor_THT:R_Axial_DIN0207_L6.3mm_D2.5mm_P10.16mm_Horizontal" V 9080 3250 50  0001 C CNN
F 3 "~" H 9150 3250 50  0001 C CNN
	1    9150 3250
	1    0    0    -1  
$EndComp
NoConn ~ 8950 4200
$Comp
L Device:R R5
U 1 1 5EF89802
P 8600 3600
F 0 "R5" V 8393 3600 50  0000 C CNN
F 1 "470" V 8484 3600 50  0000 C CNN
F 2 "Resistor_THT:R_Axial_DIN0207_L6.3mm_D2.5mm_P10.16mm_Horizontal" V 8530 3600 50  0001 C CNN
F 3 "~" H 8600 3600 50  0001 C CNN
	1    8600 3600
	0    1    1    0   
$EndComp
Wire Wire Line
	9150 4550 9150 5600
Wire Wire Line
	8750 3600 9150 3600
Wire Wire Line
	9150 3400 9150 3600
Connection ~ 9150 3600
Wire Wire Line
	9150 3600 9150 4150
Wire Wire Line
	9150 3100 9150 2300
Wire Wire Line
	5950 2300 5950 2900
Wire Wire Line
	4350 3500 4100 3500
Wire Wire Line
	4100 3500 4100 2300
Wire Wire Line
	4100 2300 5950 2300
Connection ~ 5950 2300
$Comp
L Switch:SW_DPDT_x2 SW1
U 1 1 5EF92FE6
P 2750 2300
F 0 "SW1" H 2750 1975 50  0000 C CNN
F 1 "BAT_SOL" H 2750 2066 50  0000 C CNN
F 2 "Button_Switch_THT:SW_CuK_JS202011CQN_DPDT_Straight" H 2750 2300 50  0001 C CNN
F 3 "~" H 2750 2300 50  0001 C CNN
	1    2750 2300
	-1   0    0    1   
$EndComp
$Comp
L power:GND #PWR05
U 1 1 5EF9C22B
P 4050 5700
F 0 "#PWR05" H 4050 5450 50  0001 C CNN
F 1 "GND" H 4055 5527 50  0000 C CNN
F 2 "" H 4050 5700 50  0001 C CNN
F 3 "" H 4050 5700 50  0001 C CNN
	1    4050 5700
	1    0    0    -1  
$EndComp
$Comp
L power:GND #PWR07
U 1 1 5EF9C87E
P 8100 5600
F 0 "#PWR07" H 8100 5350 50  0001 C CNN
F 1 "GND" H 8105 5427 50  0000 C CNN
F 2 "" H 8100 5600 50  0001 C CNN
F 3 "" H 8100 5600 50  0001 C CNN
	1    8100 5600
	1    0    0    -1  
$EndComp
Wire Wire Line
	4050 5200 4050 5700
Wire Wire Line
	2550 5200 2550 5700
Wire Wire Line
	3300 5200 3300 5700
$Comp
L power:GND #PWR08
U 1 1 5EFA856C
P 9150 5600
F 0 "#PWR08" H 9150 5350 50  0001 C CNN
F 1 "GND" H 9155 5427 50  0000 C CNN
F 2 "" H 9150 5600 50  0001 C CNN
F 3 "" H 9150 5600 50  0001 C CNN
	1    9150 5600
	1    0    0    -1  
$EndComp
$Comp
L power:GND #PWR04
U 1 1 5EFACFA0
P 3300 5700
F 0 "#PWR04" H 3300 5450 50  0001 C CNN
F 1 "GND" H 3305 5527 50  0000 C CNN
F 2 "" H 3300 5700 50  0001 C CNN
F 3 "" H 3300 5700 50  0001 C CNN
	1    3300 5700
	1    0    0    -1  
$EndComp
$Comp
L power:GND #PWR03
U 1 1 5EFAD2AB
P 2550 5700
F 0 "#PWR03" H 2550 5450 50  0001 C CNN
F 1 "GND" H 2555 5527 50  0000 C CNN
F 2 "" H 2550 5700 50  0001 C CNN
F 3 "" H 2550 5700 50  0001 C CNN
	1    2550 5700
	1    0    0    -1  
$EndComp
$Comp
L power:GND #PWR01
U 1 1 5EFB4A2A
P 1550 3100
F 0 "#PWR01" H 1550 2850 50  0001 C CNN
F 1 "GND" H 1555 2927 50  0000 C CNN
F 2 "" H 1550 3100 50  0001 C CNN
F 3 "" H 1550 3100 50  0001 C CNN
	1    1550 3100
	1    0    0    -1  
$EndComp
$Comp
L Switch:SW_DIP_x01 SW2
U 1 1 5EFB780E
P 3450 2300
F 0 "SW2" H 3450 2567 50  0000 C CNN
F 1 "ON_OFF" H 3450 2476 50  0000 C CNN
F 2 "Button_Switch_THT:SW_CuK_JS202011CQN_DPDT_Straight" H 3450 2300 50  0001 C CNN
F 3 "~" H 3450 2300 50  0001 C CNN
	1    3450 2300
	1    0    0    -1  
$EndComp
Wire Wire Line
	2150 2400 2550 2400
Wire Wire Line
	2950 2300 3150 2300
Wire Wire Line
	3750 2300 4100 2300
Connection ~ 4100 2300
Wire Wire Line
	1800 4100 1800 4300
$Comp
L power:GND #PWR02
U 1 1 5EFB0B59
P 1800 4300
F 0 "#PWR02" H 1800 4050 50  0001 C CNN
F 1 "GND" H 1805 4127 50  0000 C CNN
F 2 "" H 1800 4300 50  0001 C CNN
F 3 "" H 1800 4300 50  0001 C CNN
	1    1800 4300
	1    0    0    -1  
$EndComp
Wire Wire Line
	1700 4100 1800 4100
$Comp
L Connector:Screw_Terminal_01x02 J1
U 1 1 5EF983D2
P 1500 4100
F 0 "J1" H 1418 3775 50  0000 C CNN
F 1 "SOLAR" H 1418 3866 50  0000 C CNN
F 2 "TerminalBlock_Altech:Altech_AK300_1x02_P5.00mm_45-Degree" H 1500 4100 50  0001 C CNN
F 3 "~" H 1500 4100 50  0001 C CNN
	1    1500 4100
	-1   0    0    1   
$EndComp
$Comp
L Device:Battery BT1
U 1 1 5EFD4C2C
P 1550 2650
F 0 "BT1" H 1658 2696 50  0000 L CNN
F 1 "Battery" H 1658 2605 50  0000 L CNN
F 2 "Battery:BatteryHolder_Keystone_2479_3xAAA" V 1550 2710 50  0001 C CNN
F 3 "~" V 1550 2710 50  0001 C CNN
	1    1550 2650
	1    0    0    -1  
$EndComp
Wire Wire Line
	2150 2400 2150 4000
Wire Wire Line
	1700 4000 2150 4000
Wire Wire Line
	1550 2450 1550 2200
Wire Wire Line
	1550 2200 2550 2200
Wire Wire Line
	1550 2850 1550 3100
$Comp
L Connector:Screw_Terminal_01x02 J2
U 1 1 5EFEDE2F
P 10000 2650
F 0 "J2" H 10080 2642 50  0000 L CNN
F 1 "TEMP_SENS" H 10080 2551 50  0000 L CNN
F 2 "TerminalBlock_Altech:Altech_AK300_1x02_P5.00mm_45-Degree" H 10000 2650 50  0001 C CNN
F 3 "~" H 10000 2650 50  0001 C CNN
	1    10000 2650
	1    0    0    -1  
$EndComp
Wire Wire Line
	9800 2650 8100 2650
Wire Wire Line
	8100 2650 8100 3400
Wire Wire Line
	8100 3400 7550 3400
Wire Wire Line
	7550 3600 8450 3600
Wire Wire Line
	9150 2300 5950 2300
$Comp
L power:GND #PWR06
U 1 1 5F034129
P 5950 4400
F 0 "#PWR06" H 5950 4150 50  0001 C CNN
F 1 "GND" H 5955 4227 50  0000 C CNN
F 2 "" H 5950 4400 50  0001 C CNN
F 3 "" H 5950 4400 50  0001 C CNN
	1    5950 4400
	1    0    0    -1  
$EndComp
Wire Wire Line
	5950 4100 5950 4400
$Comp
L power:GND #PWR09
U 1 1 5F03A530
P 9650 3150
F 0 "#PWR09" H 9650 2900 50  0001 C CNN
F 1 "GND" H 9655 2977 50  0000 C CNN
F 2 "" H 9650 3150 50  0001 C CNN
F 3 "" H 9650 3150 50  0001 C CNN
	1    9650 3150
	1    0    0    -1  
$EndComp
Wire Wire Line
	9650 3150 9650 2750
Wire Wire Line
	9650 2750 9800 2750
Wire Wire Line
	4050 3700 4350 3700
Wire Wire Line
	3300 3400 4350 3400
$EndSCHEMATC
