(export (version D)
  (design
    (source /home/jrs/Documents/git/temp-sensor/sensor/sensor.sch)
    (date "Sat 27 Jun 2020 12:10:31 BST")
    (tool "Eeschema 5.1.6-c6e7f7d~86~ubuntu18.04.1")
    (sheet (number 1) (name /) (tstamps /)
      (title_block
        (title)
        (company)
        (rev)
        (date)
        (source sensor.sch)
        (comment (number 1) (value ""))
        (comment (number 2) (value ""))
        (comment (number 3) (value ""))
        (comment (number 4) (value "")))))
  (components
    (comp (ref U1)
      (value PIC16F684-IP)
      (footprint Package_DIP:DIP-14_W7.62mm_Socket_LongPads)
      (datasheet http://ww1.microchip.com/downloads/en/DeviceDoc/41202F-print.pdf)
      (libsource (lib MCU_Microchip_PIC16) (part PIC16F684-IP) (description "2048W FLASH, 128B SRAM, 256B EEPROM, PDIP-14"))
      (sheetpath (names /) (tstamps /))
      (tstamp 5EF66190))
    (comp (ref R3)
      (value 1k)
      (footprint Resistor_THT:R_Axial_DIN0207_L6.3mm_D2.5mm_P10.16mm_Horizontal)
      (datasheet ~)
      (libsource (lib Device) (part R) (description Resistor))
      (sheetpath (names /) (tstamps /))
      (tstamp 5EF67ABF))
    (comp (ref D4)
      (value READY)
      (footprint LED_THT:LED_D5.0mm_Clear)
      (datasheet ~)
      (libsource (lib Device) (part LED) (description "Light emitting diode"))
      (sheetpath (names /) (tstamps /))
      (tstamp 5EF68D67))
    (comp (ref R2)
      (value 1k)
      (footprint Resistor_THT:R_Axial_DIN0207_L6.3mm_D2.5mm_P10.16mm_Horizontal)
      (datasheet ~)
      (libsource (lib Device) (part R) (description Resistor))
      (sheetpath (names /) (tstamps /))
      (tstamp 5EF72222))
    (comp (ref D6)
      (value OVER_TEMP)
      (footprint LED_THT:LED_D5.0mm_Clear)
      (datasheet ~)
      (libsource (lib Device) (part LED) (description "Light emitting diode"))
      (sheetpath (names /) (tstamps /))
      (tstamp 5EF72228))
    (comp (ref R4)
      (value 1k)
      (footprint Resistor_THT:R_Axial_DIN0207_L6.3mm_D2.5mm_P10.16mm_Horizontal)
      (datasheet ~)
      (libsource (lib Device) (part R) (description Resistor))
      (sheetpath (names /) (tstamps /))
      (tstamp 5EF72F2D))
    (comp (ref D7)
      (value FAULT)
      (footprint LED_THT:LED_D5.0mm_Clear)
      (datasheet ~)
      (libsource (lib Device) (part LED) (description "Light emitting diode"))
      (sheetpath (names /) (tstamps /))
      (tstamp 5EF72F33))
    (comp (ref R1)
      (value 1k)
      (footprint Resistor_THT:R_Axial_DIN0207_L6.3mm_D2.5mm_P10.16mm_Horizontal)
      (datasheet ~)
      (libsource (lib Device) (part R) (description Resistor))
      (sheetpath (names /) (tstamps /))
      (tstamp 5EF7698B))
    (comp (ref D5)
      (value STERIL)
      (footprint LED_THT:LED_D5.0mm_Clear)
      (datasheet ~)
      (libsource (lib Device) (part LED) (description "Light emitting diode"))
      (sheetpath (names /) (tstamps /))
      (tstamp 5EF76991))
    (comp (ref SW3)
      (value START)
      (footprint TerminalBlock_Altech:Altech_AK300_1x02_P5.00mm_45-Degree)
      (datasheet ~)
      (libsource (lib Switch) (part SW_Push) (description "Push button switch, generic, two pins"))
      (sheetpath (names /) (tstamps /))
      (tstamp 5EF863C2))
    (comp (ref R6)
      (value 10k)
      (footprint Resistor_THT:R_Axial_DIN0207_L6.3mm_D2.5mm_P10.16mm_Horizontal)
      (datasheet ~)
      (libsource (lib Device) (part R) (description Resistor))
      (sheetpath (names /) (tstamps /))
      (tstamp 5EF871E6))
    (comp (ref R5)
      (value 470)
      (footprint Resistor_THT:R_Axial_DIN0207_L6.3mm_D2.5mm_P10.16mm_Horizontal)
      (datasheet ~)
      (libsource (lib Device) (part R) (description Resistor))
      (sheetpath (names /) (tstamps /))
      (tstamp 5EF89802))
    (comp (ref SW1)
      (value BAT_SOL)
      (footprint Button_Switch_THT:SW_CuK_JS202011CQN_DPDT_Straight)
      (libsource (lib Switch) (part SW_DPDT_x2) (description "Switch, dual pole double throw, separate symbols"))
      (sheetpath (names /) (tstamps /))
      (tstamp 5EF92FE6))
    (comp (ref SW2)
      (value ON_OFF)
      (footprint Button_Switch_THT:SW_CuK_JS202011CQN_DPDT_Straight)
      (datasheet ~)
      (libsource (lib Switch) (part SW_DIP_x01) (description "1x DIP Switch, Single Pole Single Throw (SPST) switch, small symbol"))
      (sheetpath (names /) (tstamps /))
      (tstamp 5EFB780E))
    (comp (ref J1)
      (value SOLAR)
      (footprint TerminalBlock_Altech:Altech_AK300_1x02_P5.00mm_45-Degree)
      (datasheet ~)
      (libsource (lib Connector) (part Screw_Terminal_01x02) (description "Generic screw terminal, single row, 01x02, script generated (kicad-library-utils/schlib/autogen/connector/)"))
      (sheetpath (names /) (tstamps /))
      (tstamp 5EF983D2))
    (comp (ref BT1)
      (value Battery)
      (footprint Battery:BatteryHolder_Keystone_2479_3xAAA)
      (datasheet ~)
      (libsource (lib Device) (part Battery) (description "Multiple-cell battery"))
      (sheetpath (names /) (tstamps /))
      (tstamp 5EFD4C2C))
    (comp (ref J2)
      (value TEMP_SENS)
      (footprint TerminalBlock_Altech:Altech_AK300_1x02_P5.00mm_45-Degree)
      (datasheet ~)
      (libsource (lib Connector) (part Screw_Terminal_01x02) (description "Generic screw terminal, single row, 01x02, script generated (kicad-library-utils/schlib/autogen/connector/)"))
      (sheetpath (names /) (tstamps /))
      (tstamp 5EFEDE2F)))
  (libparts
    (libpart (lib Connector) (part Screw_Terminal_01x02)
      (description "Generic screw terminal, single row, 01x02, script generated (kicad-library-utils/schlib/autogen/connector/)")
      (docs ~)
      (footprints
        (fp TerminalBlock*:*))
      (fields
        (field (name Reference) J)
        (field (name Value) Screw_Terminal_01x02))
      (pins
        (pin (num 1) (name Pin_1) (type passive))
        (pin (num 2) (name Pin_2) (type passive))))
    (libpart (lib Device) (part Battery)
      (description "Multiple-cell battery")
      (docs ~)
      (fields
        (field (name Reference) BT)
        (field (name Value) Battery))
      (pins
        (pin (num 1) (name +) (type passive))
        (pin (num 2) (name -) (type passive))))
    (libpart (lib Device) (part LED)
      (description "Light emitting diode")
      (docs ~)
      (footprints
        (fp LED*)
        (fp LED_SMD:*)
        (fp LED_THT:*))
      (fields
        (field (name Reference) D)
        (field (name Value) LED))
      (pins
        (pin (num 1) (name K) (type passive))
        (pin (num 2) (name A) (type passive))))
    (libpart (lib Device) (part R)
      (description Resistor)
      (docs ~)
      (footprints
        (fp R_*))
      (fields
        (field (name Reference) R)
        (field (name Value) R))
      (pins
        (pin (num 1) (name ~) (type passive))
        (pin (num 2) (name ~) (type passive))))
    (libpart (lib MCU_Microchip_PIC16) (part PIC16F684-IP)
      (description "2048W FLASH, 128B SRAM, 256B EEPROM, PDIP-14")
      (docs http://ww1.microchip.com/downloads/en/DeviceDoc/41202F-print.pdf)
      (footprints
        (fp DIP*)
        (fp PDIP*)
        (fp SO*))
      (fields
        (field (name Reference) U)
        (field (name Value) PIC16F684-IP))
      (pins
        (pin (num 1) (name VDD) (type power_in))
        (pin (num 2) (name RA5/T1CKI/OSC1/CLKIN) (type BiDi))
        (pin (num 3) (name RA4/AN3/~T1G~/OSC2/CLKOUT) (type BiDi))
        (pin (num 4) (name RA3/~MCLR~/Vpp) (type input))
        (pin (num 5) (name P1A/CCP1/RC5) (type BiDi))
        (pin (num 6) (name P1B/C2OUT/RC4) (type BiDi))
        (pin (num 7) (name P1C/AN7/RC3) (type BiDi))
        (pin (num 8) (name P1D/AN6/RC2) (type BiDi))
        (pin (num 9) (name C2IN-/AN5/RC1) (type BiDi))
        (pin (num 10) (name C2IN+/AN4/RC0) (type BiDi))
        (pin (num 11) (name RA2/AN2/T0CKI/INT/C1OUT) (type BiDi))
        (pin (num 12) (name RA1/AN1/C1IN-/Vref/ICSPCLK) (type BiDi))
        (pin (num 13) (name RA0/AN0/C1IN+/ICSPDAT/ULPWU) (type BiDi))
        (pin (num 14) (name VSS) (type power_in))))
    (libpart (lib Switch) (part SW_DIP_x01)
      (description "1x DIP Switch, Single Pole Single Throw (SPST) switch, small symbol")
      (docs ~)
      (footprints
        (fp SW?DIP?x1*))
      (fields
        (field (name Reference) SW)
        (field (name Value) SW_DIP_x01))
      (pins
        (pin (num 1) (name ~) (type passive))
        (pin (num 2) (name ~) (type passive))))
    (libpart (lib Switch) (part SW_DPDT_x2)
      (description "Switch, dual pole double throw, separate symbols")
      (docs ~)
      (footprints
        (fp SW*DPDT*))
      (fields
        (field (name Reference) SW)
        (field (name Value) SW_DPDT_x2))
      (pins
        (pin (num 1) (name A) (type passive))
        (pin (num 2) (name B) (type passive))
        (pin (num 3) (name C) (type passive))
        (pin (num 4) (name A) (type passive))
        (pin (num 5) (name B) (type passive))
        (pin (num 6) (name C) (type passive))))
    (libpart (lib Switch) (part SW_Push)
      (description "Push button switch, generic, two pins")
      (docs ~)
      (fields
        (field (name Reference) SW)
        (field (name Value) SW_Push))
      (pins
        (pin (num 1) (name 1) (type passive))
        (pin (num 2) (name 2) (type passive)))))
  (libraries
    (library (logical Connector)
      (uri /usr/share/kicad/library/Connector.lib))
    (library (logical Device)
      (uri /usr/share/kicad/library/Device.lib))
    (library (logical MCU_Microchip_PIC16)
      (uri /usr/share/kicad/library/MCU_Microchip_PIC16.lib))
    (library (logical Switch)
      (uri /usr/share/kicad/library/Switch.lib)))
  (nets
    (net (code 1) (name "Net-(SW1-Pad2)")
      (node (ref SW1) (pin 2))
      (node (ref SW2) (pin 1)))
    (net (code 2) (name "Net-(BT1-Pad1)")
      (node (ref SW1) (pin 3))
      (node (ref BT1) (pin 1)))
    (net (code 3) (name "Net-(R5-Pad2)")
      (node (ref R5) (pin 2))
      (node (ref U1) (pin 6)))
    (net (code 4) (name "Net-(J2-Pad1)")
      (node (ref J2) (pin 1))
      (node (ref U1) (pin 8)))
    (net (code 5) (name "Net-(J1-Pad2)")
      (node (ref SW1) (pin 1))
      (node (ref J1) (pin 2)))
    (net (code 6) (name "Net-(R3-Pad1)")
      (node (ref R3) (pin 1))
      (node (ref U1) (pin 2)))
    (net (code 7) (name "Net-(D7-Pad2)")
      (node (ref R4) (pin 2))
      (node (ref D7) (pin 2)))
    (net (code 8) (name "Net-(D6-Pad2)")
      (node (ref D6) (pin 2))
      (node (ref R2) (pin 2)))
    (net (code 9) (name "Net-(R2-Pad1)")
      (node (ref U1) (pin 11))
      (node (ref R2) (pin 1)))
    (net (code 10) (name "Net-(D4-Pad2)")
      (node (ref R3) (pin 2))
      (node (ref D4) (pin 2)))
    (net (code 11) (name "Net-(U1-Pad9)")
      (node (ref U1) (pin 9)))
    (net (code 12) (name "Net-(U1-Pad7)")
      (node (ref U1) (pin 7)))
    (net (code 13) (name "Net-(R4-Pad1)")
      (node (ref R4) (pin 1))
      (node (ref U1) (pin 5)))
    (net (code 14) (name "Net-(R6-Pad1)")
      (node (ref SW2) (pin 2))
      (node (ref U1) (pin 4))
      (node (ref U1) (pin 1))
      (node (ref R6) (pin 1)))
    (net (code 15) (name "Net-(U1-Pad3)")
      (node (ref U1) (pin 3)))
    (net (code 16) (name "Net-(U1-Pad13)")
      (node (ref U1) (pin 13)))
    (net (code 17) (name "Net-(R1-Pad1)")
      (node (ref U1) (pin 12))
      (node (ref R1) (pin 1)))
    (net (code 18) (name "Net-(U1-Pad10)")
      (node (ref U1) (pin 10)))
    (net (code 19) (name GND)
      (node (ref U1) (pin 14))
      (node (ref D4) (pin 1))
      (node (ref SW3) (pin 2))
      (node (ref D5) (pin 1))
      (node (ref D6) (pin 1))
      (node (ref J2) (pin 2))
      (node (ref D7) (pin 1))
      (node (ref J1) (pin 1))
      (node (ref BT1) (pin 2)))
    (net (code 20) (name "Net-(R5-Pad1)")
      (node (ref R6) (pin 2))
      (node (ref SW3) (pin 1))
      (node (ref R5) (pin 1)))
    (net (code 22) (name "Net-(D5-Pad2)")
      (node (ref D5) (pin 2))
      (node (ref R1) (pin 2)))))